<svg
   id="svg833"
   version="1.1"
   viewBox="0 0 264.00107 264.00211"
   
   >
  <g
     transform="translate(6.4117334,-41.110367)"
     id="layer1">
    <rect
       ry="17.146826"
       y="49.110367"
       x="1.5882666"
       height="248.00211"
       width="248.00107"
       id="rect1390"
       [attr.stroke]="color"
       [attr.fill]="color"
       style="opacity:1;fill-opacity:1.0;stroke-width:16;stroke-linejoin:round;stroke-miterlimit:4;stroke-dasharray:none;stroke-opacity:1" />
    <circle
       r="21.915976"
       cy="108.99658"
       cx="64.011871"
       id="path1496"
       style="opacity:1;fill:#ffffff;fill-opacity:1;stroke:#ffffff;stroke-width:16;stroke-linejoin:round;stroke-miterlimit:4;stroke-dasharray:none;stroke-opacity:1" />
    <circle
       r="21.915976"
       cy="172.99747"
       cx="124.00252"
       id="path1496-0"
       style="opacity:1;fill:#ffffff;fill-opacity:1;stroke:#ffffff;stroke-width:16;stroke-linejoin:round;stroke-miterlimit:4;stroke-dasharray:none;stroke-opacity:1" />
    <circle
       r="21.915976"
       cy="237.00397"
       cx="64.011871"
       id="path1496-4"
       style="opacity:1;fill:#ffffff;fill-opacity:1;stroke:#ffffff;stroke-width:16;stroke-linejoin:round;stroke-miterlimit:4;stroke-dasharray:none;stroke-opacity:1" />
    <circle
       r="21.915976"
       cy="237.08064"
       cx="184.00145"
       id="path1496-44"
       style="opacity:1;fill:#ffffff;fill-opacity:1;stroke:#ffffff;stroke-width:16;stroke-linejoin:round;stroke-miterlimit:4;stroke-dasharray:none;stroke-opacity:1" />
    <circle
       r="21.915976"
       cy="108.91401"
       cx="184.00145"
       id="path1496-6"
       style="opacity:1;fill:#ffffff;fill-opacity:1;stroke:#ffffff;stroke-width:16;stroke-linejoin:round;stroke-miterlimit:4;stroke-dasharray:none;stroke-opacity:1" />
  </g>
</svg>
